…
Next, join this new data frame with gapminder using the various `join`
functions.

**left
    join**

``` r
left_join(gapminder,new_data, by="country")
```

    ## Warning: Column `country` joining factor and character vector, coercing
    ## into character vector

    ## # A tibble: 1,704 x 8
    ##    country continent  year lifeExp    pop gdpPercap democracy_score
    ##    <chr>   <fct>     <int>   <dbl>  <int>     <dbl>           <int>
    ##  1 Afghan… Asia       1952    28.8 8.43e6      779.              -7
    ##  2 Afghan… Asia       1957    30.3 9.24e6      821.              -7
    ##  3 Afghan… Asia       1962    32.0 1.03e7      853.              -7
    ##  4 Afghan… Asia       1967    34.0 1.15e7      836.              -7
    ##  5 Afghan… Asia       1972    36.1 1.31e7      740.              -7
    ##  6 Afghan… Asia       1977    38.4 1.49e7      786.              -7
    ##  7 Afghan… Asia       1982    39.9 1.29e7      978.              -7
    ##  8 Afghan… Asia       1987    40.8 1.39e7      852.              -7
    ##  9 Afghan… Asia       1992    41.7 1.63e7      649.              -7
    ## 10 Afghan… Asia       1997    41.8 2.22e7      635.              -7
    ## # ... with 1,694 more rows, and 1 more variable: children_per_woman <dbl>
…
**right
    join**

``` r
right_join(gapminder,new_data,by="country")
```

    ## Warning: Column `country` joining factor and character vector, coercing
    ## into character vector

    ## # A tibble: 1,698 x 8
    ##    country continent  year lifeExp    pop gdpPercap democracy_score
    ##    <chr>   <fct>     <int>   <dbl>  <int>     <dbl>           <int>
    ##  1 Afghan… Asia       1952    28.8 8.43e6      779.              -7
    ##  2 Afghan… Asia       1957    30.3 9.24e6      821.              -7
    ##  3 Afghan… Asia       1962    32.0 1.03e7      853.              -7
    ##  4 Afghan… Asia       1967    34.0 1.15e7      836.              -7
    ##  5 Afghan… Asia       1972    36.1 1.31e7      740.              -7
    ##  6 Afghan… Asia       1977    38.4 1.49e7      786.              -7
    ##  7 Afghan… Asia       1982    39.9 1.29e7      978.              -7
    ##  8 Afghan… Asia       1987    40.8 1.39e7      852.              -7
    ##  9 Afghan… Asia       1992    41.7 1.63e7      649.              -7
    ## 10 Afghan… Asia       1997    41.8 2.22e7      635.              -7
    ## # ... with 1,688 more rows, and 1 more variable: children_per_woman <dbl>
…
**inner
    join**

``` r
inner_join(gapminder,new_data,by="country")
```

    ## Warning: Column `country` joining factor and character vector, coercing
    ## into character vector

    ## # A tibble: 1,632 x 8
    ##    country continent  year lifeExp    pop gdpPercap democracy_score
    ##    <chr>   <fct>     <int>   <dbl>  <int>     <dbl>           <int>
    ##  1 Afghan… Asia       1952    28.8 8.43e6      779.              -7
    ##  2 Afghan… Asia       1957    30.3 9.24e6      821.              -7
    ##  3 Afghan… Asia       1962    32.0 1.03e7      853.              -7
    ##  4 Afghan… Asia       1967    34.0 1.15e7      836.              -7
    ##  5 Afghan… Asia       1972    36.1 1.31e7      740.              -7
    ##  6 Afghan… Asia       1977    38.4 1.49e7      786.              -7
    ##  7 Afghan… Asia       1982    39.9 1.29e7      978.              -7
    ##  8 Afghan… Asia       1987    40.8 1.39e7      852.              -7
    ##  9 Afghan… Asia       1992    41.7 1.63e7      649.              -7
    ## 10 Afghan… Asia       1997    41.8 2.22e7      635.              -7
    ## # ... with 1,622 more rows, and 1 more variable: children_per_woman <dbl>

`inner join` only retains observations that have a country in both
gapminder and new\_data.

**full
    join**

``` r
full_join(gapminder,new_data,by="country")
```

    ## Warning: Column `country` joining factor and character vector, coercing
    ## into character vector

    ## # A tibble: 1,770 x 8
    ##    country continent  year lifeExp    pop gdpPercap democracy_score
    ##    <chr>   <fct>     <int>   <dbl>  <int>     <dbl>           <int>
    ##  1 Afghan… Asia       1952    28.8 8.43e6      779.              -7
    ##  2 Afghan… Asia       1957    30.3 9.24e6      821.              -7
    ##  3 Afghan… Asia       1962    32.0 1.03e7      853.              -7
    ##  4 Afghan… Asia       1967    34.0 1.15e7      836.              -7
    ##  5 Afghan… Asia       1972    36.1 1.31e7      740.              -7
    ##  6 Afghan… Asia       1977    38.4 1.49e7      786.              -7
    ##  7 Afghan… Asia       1982    39.9 1.29e7      978.              -7
    ##  8 Afghan… Asia       1987    40.8 1.39e7      852.              -7
    ##  9 Afghan… Asia       1992    41.7 1.63e7      649.              -7
    ## 10 Afghan… Asia       1997    41.8 2.22e7      635.              -7
    ## # ... with 1,760 more rows, and 1 more variable: children_per_woman <dbl>
…
**semi
    join**

``` r
semi_join(gapminder,new_data)
```

    ## Joining, by = "country"

    ## Warning: Column `country` joining factor and character vector, coercing
    ## into character vector

    ## # A tibble: 1,632 x 6
    ##    country     continent  year lifeExp      pop gdpPercap
    ##    <fct>       <fct>     <int>   <dbl>    <int>     <dbl>
    ##  1 Afghanistan Asia       1952    28.8  8425333      779.
    ##  2 Afghanistan Asia       1957    30.3  9240934      821.
    ##  3 Afghanistan Asia       1962    32.0 10267083      853.
    ##  4 Afghanistan Asia       1967    34.0 11537966      836.
    ##  5 Afghanistan Asia       1972    36.1 13079460      740.
    ##  6 Afghanistan Asia       1977    38.4 14880372      786.
    ##  7 Afghanistan Asia       1982    39.9 12881816      978.
    ##  8 Afghanistan Asia       1987    40.8 13867957      852.
    ##  9 Afghanistan Asia       1992    41.7 16317921      649.
    ## 10 Afghanistan Asia       1997    41.8 22227415      635.
    ## # ... with 1,622 more rows
…
**anti
    join**

``` r
anti_join(gapminder,new_data)
```

    ## Joining, by = "country"

    ## Warning: Column `country` joining factor and character vector, coercing
    ## into character vector

    ## # A tibble: 72 x 6
    ##    country continent  year lifeExp      pop gdpPercap
    ##    <fct>   <fct>     <int>   <dbl>    <int>     <dbl>
    ##  1 Iran    Asia       1952    44.9 17272000     3035.
    ##  2 Iran    Asia       1957    47.2 19792000     3290.
    ##  3 Iran    Asia       1962    49.3 22874000     4187.
    ##  4 Iran    Asia       1967    52.5 26538000     5907.
    ##  5 Iran    Asia       1972    55.2 30614000     9614.
    ##  6 Iran    Asia       1977    57.7 35480679    11889.
    ##  7 Iran    Asia       1982    59.6 43072751     7608.
    ##  8 Iran    Asia       1987    63.0 51889696     6643.
    ##  9 Iran    Asia       1992    65.7 60397973     7236.
    ## 10 Iran    Asia       1997    68.0 63327987     8264.
    ## # ... with 62 more rows
…
